<?xml version="1.0" encoding="utf-8"?>
<!-- Generator: Adobe Illustrator 17.1.0, SVG Export Plug-In . SVG Version: 6.00 Build 0)  -->
<!DOCTYPE svg PUBLIC "-//W3C//DTD SVG 1.1//EN" "http://www.w3.org/Graphics/SVG/1.1/DTD/svg11.dtd">
<svg version="1.1" id="Layer_1" xmlns="http://www.w3.org/2000/svg" xmlns:xlink="http://www.w3.org/1999/xlink" x="0px" y="0px"
	 viewBox="0 0 48 48" enable-background="new 0 0 48 48" xml:space="preserve">
<path fill="#A8A8A8" d="M42,2v44H6V2H42 M44,0H4v48h40V0L44,0z"/>
<rect x="8" y="4" fill="#A8A8A8" width="32" height="10"/>
<rect x="8" y="16" fill="#13B8BC" width="12" height="28"/>
<rect x="22" y="16" fill="#A8A8A8" width="8" height="8"/>
<rect x="32" y="16" fill="#A8A8A8" width="8" height="8"/>
<rect x="22" y="26" fill="#A8A8A8" width="8" height="8"/>
<rect x="32" y="26" fill="#A8A8A8" width="8" height="8"/>
<rect x="22" y="36" fill="#A8A8A8" width="8" height="8"/>
<rect x="32" y="36" fill="#A8A8A8" width="8" height="8"/>
</svg>
