<?xml version="1.0" encoding="utf-8"?>
<!-- Generator: Adobe Illustrator 17.1.0, SVG Export Plug-In . SVG Version: 6.00 Build 0)  -->
<!DOCTYPE svg PUBLIC "-//W3C//DTD SVG 1.1//EN" "http://www.w3.org/Graphics/SVG/1.1/DTD/svg11.dtd">
<svg version="1.1" id="Layer_1" xmlns="http://www.w3.org/2000/svg" xmlns:xlink="http://www.w3.org/1999/xlink" x="0px" y="0px"
	 viewBox="0 0 96 96" enable-background="new 0 0 96 96" xml:space="preserve">
<path fill="#13B8BC" d="M84,4v88H12V4H84 M88,0H8v96h80V0L88,0z"/>
<g>
	<rect x="16" y="8" fill="#13B8BC" width="64" height="20"/>
</g>
<g>
	<rect x="16" y="32" fill="#13B8BC" width="24" height="56"/>
</g>
<g>
	<rect x="44" y="32" fill="#13B8BC" width="16" height="16"/>
</g>
<g>
	<rect x="64" y="32" fill="#13B8BC" width="16" height="16"/>
</g>
<g>
	<rect x="44" y="52" fill="#13B8BC" width="16" height="16"/>
</g>
<g>
	<rect x="64" y="52" fill="#13B8BC" width="16" height="16"/>
</g>
<g>
	<rect x="44" y="72" fill="#13B8BC" width="16" height="16"/>
</g>
<g>
	<rect x="64" y="72" fill="#13B8BC" width="16" height="16"/>
</g>
</svg>
